{"photos":{"page":1,"pages":14771,"perpage":30,"total":"443123","photo":[{"id":"46592422244","owner":"127062568@N02","secret":"bbf6a6ccdf","server":"7919","farm":8,"title":"Blue Mountains Botanic Garden 08-03-2019","ispublic":1,"isfriend":0,"isfamily":0,"url_m":"https:\/\/farm8.staticflickr.com\/7919\/46592422244_bbf6a6ccdf.jpg","height_m":"211","width_m":"500","url_c":"https:\/\/farm8.staticflickr.com\/7919\/46592422244_bbf6a6ccdf_c.jpg","height_c":338,"width_c":"800","url_l":"https:\/\/farm8.staticflickr.com\/7919\/46592422244_bbf6a6ccdf_b.jpg","height_l":"432","width_l":"1024","url_h":"https:\/\/farm8.staticflickr.com\/7919\/46592422244_5e09622044_h.jpg","height_h":675,"width_h":"1600","url_o":"https:\/\/farm8.staticflickr.com\/7919\/46592422244_5af1a14517_o.jpg","height_o":"3253","width_o":"7707"},{"id":"46400749735","owner":"39311727@N00","secret":"0d5a4b46dc","server":"7833","farm":8,"title":"Chenda in Tibetan dress on deck of Blue Angel hotel, Kathmandu - Feb1977","ispublic":1,"isfriend":0,"isfamily":0,"url_m":"https:\/\/farm8.staticflickr.com\/7833\/46400749735_0d5a4b46dc.jpg","height_m":"500","width_m":"386","url_c":"https:\/\/farm8.staticflickr.com\/7833\/46400749735_0d5a4b46dc_c.jpg","height_c":"800","width_c":618,"url_l":"https:\/\/farm8.staticflickr.com\/7833\/46400749735_0d5a4b46dc_b.jpg","height_l":"1024","width_l":"791","url_o":"https:\/\/farm8.staticflickr.com\/7833\/46400749735_20b89c7d88_o.jpg","height_o":"1336","width_o":"1032"},{"id":"33439932538","owner":"132670954@N07","secret":"f225a5d239","server":"7852","farm":8,"title":"\u0416\u0443\u0440\u043d\u0430\u043b \"\u0412\u043e\u044f\u0436\" \u2116201","ispublic":1,"isfriend":0,"isfamily":0,"url_m":"https:\/\/farm8.staticflickr.com\/7852\/33439932538_f225a5d239.jpg","height_m":"319","width_m":"500","url_c":"https:\/\/farm8.staticflickr.com\/7852\/33439932538_f225a5d239_c.jpg","height_c":510,"width_c":"800","url_l":"https:\/\/farm8.staticflickr.com\/7852\/33439932538_f225a5d239_b.jpg","height_l":"653","width_l":"1024"},{"id":"46400644205","owner":"9108763@N08","secret":"d1d34dfb2d","server":"7850","farm":8,"title":"*SURLY* disc trucker (52)","ispublic":1,"isfriend":0,"isfamily":0,"url_m":"https:\/\/farm8.staticflickr.com\/7850\/46400644205_d1d34dfb2d.jpg","height_m":"333","width_m":"500","url_c":"https:\/\/farm8.staticflickr.com\/7850\/46400644205_d1d34dfb2d_c.jpg","height_c":534,"width_c":"800","url_l":"https:\/\/farm8.staticflickr.com\/7850\/46400644205_d1d34dfb2d_b.jpg","height_l":"683","width_l":"1024","url_h":"https:\/\/farm8.staticflickr.com\/7850\/46400644205_f94c9b7b58_h.jpg","height_h":1067,"width_h":"1600","url_o":"https:\/\/farm8.staticflickr.com\/7850\/46400644205_79646948c2_o.jpg","height_o":"2592","width_o":"3888"},{"id":"40350594093","owner":"9108763@N08","secret":"ee125b0e83","server":"7813","farm":8,"title":"*SURLY* disc trucker (52)","ispublic":1,"isfriend":0,"isfamily":0,"url_m":"https:\/\/farm8.staticflickr.com\/7813\/40350594093_ee125b0e83.jpg","height_m":"333","width_m":"500","url_c":"https:\/\/farm8.staticflickr.com\/7813\/40350594093_ee125b0e83_c.jpg","height_c":534,"width_c":"800","url_l":"https:\/\/farm8.staticflickr.com\/7813\/40350594093_ee125b0e83_b.jpg","height_l":"683","width_l":"1024","url_h":"https:\/\/farm8.staticflickr.com\/7813\/40350594093_897e41bbfb_h.jpg","height_h":1067,"width_h":"1600","url_o":"https:\/\/farm8.staticflickr.com\/7813\/40350594093_a033b7355d_o.jpg","height_o":"2592","width_o":"3888"},{"id":"46400643825","owner":"9108763@N08","secret":"e2a4275e0d","server":"7920","farm":8,"title":"*SURLY* disc trucker (52)","ispublic":1,"isfriend":0,"isfamily":0,"url_m":"https:\/\/farm8.staticflickr.com\/7920\/46400643825_e2a4275e0d.jpg","height_m":"333","width_m":"500","url_c":"https:\/\/farm8.staticflickr.com\/7920\/46400643825_e2a4275e0d_c.jpg","height_c":534,"width_c":"800","url_l":"https:\/\/farm8.staticflickr.com\/7920\/46400643825_e2a4275e0d_b.jpg","height_l":"683","width_l":"1024","url_h":"https:\/\/farm8.staticflickr.com\/7920\/46400643825_3ce68402c5_h.jpg","height_h":1067,"width_h":"1600","url_o":"https:\/\/farm8.staticflickr.com\/7920\/46400643825_bf3aa5ea21_o.jpg","height_o":"2592","width_o":"3888"},{"id":"40350593403","owner":"9108763@N08","secret":"6c7a638cee","server":"7819","farm":8,"title":"*SURLY* disc trucker (52)","ispublic":1,"isfriend":0,"isfamily":0,"url_m":"https:\/\/farm8.staticflickr.com\/7819\/40350593403_6c7a638cee.jpg","height_m":"333","width_m":"500","url_c":"https:\/\/farm8.staticflickr.com\/7819\/40350593403_6c7a638cee_c.jpg","height_c":534,"width_c":"800","url_l":"https:\/\/farm8.staticflickr.com\/7819\/40350593403_6c7a638cee_b.jpg","height_l":"683","width_l":"1024","url_h":"https:\/\/farm8.staticflickr.com\/7819\/40350593403_ff591957e7_h.jpg","height_h":1067,"width_h":"1600","url_o":"https:\/\/farm8.staticflickr.com\/7819\/40350593403_76e0a74b9d_o.jpg","height_o":"2592","width_o":"3888"},{"id":"46400643495","owner":"9108763@N08","secret":"bc8f622634","server":"7821","farm":8,"title":"*SURLY* disc trucker (52)","ispublic":1,"isfriend":0,"isfamily":0,"url_m":"https:\/\/farm8.staticflickr.com\/7821\/46400643495_bc8f622634.jpg","height_m":"333","width_m":"500","url_c":"https:\/\/farm8.staticflickr.com\/7821\/46400643495_bc8f622634_c.jpg","height_c":534,"width_c":"800","url_l":"https:\/\/farm8.staticflickr.com\/7821\/46400643495_bc8f622634_b.jpg","height_l":"683","width_l":"1024","url_h":"https:\/\/farm8.staticflickr.com\/7821\/46400643495_5e05367a1c_h.jpg","height_h":1067,"width_h":"1600","url_o":"https:\/\/farm8.staticflickr.com\/7821\/46400643495_2199501a59_o.jpg","height_o":"2592","width_o":"3888"},{"id":"46592294054","owner":"9108763@N08","secret":"14c1d5a1b6","server":"7853","farm":8,"title":"*SURLY* disc trucker (52)","ispublic":1,"isfriend":0,"isfamily":0,"url_m":"https:\/\/farm8.staticflickr.com\/7853\/46592294054_14c1d5a1b6.jpg","height_m":"333","width_m":"500","url_c":"https:\/\/farm8.staticflickr.com\/7853\/46592294054_14c1d5a1b6_c.jpg","height_c":534,"width_c":"800","url_l":"https:\/\/farm8.staticflickr.com\/7853\/46592294054_14c1d5a1b6_b.jpg","height_l":"683","width_l":"1024","url_h":"https:\/\/farm8.staticflickr.com\/7853\/46592294054_122584627e_h.jpg","height_h":1067,"width_h":"1600","url_o":"https:\/\/farm8.staticflickr.com\/7853\/46592294054_020a1fce1c_o.jpg","height_o":"2592","width_o":"3888"},{"id":"46400643135","owner":"9108763@N08","secret":"242c90faba","server":"7913","farm":8,"title":"*SURLY* disc trucker (52)","ispublic":1,"isfriend":0,"isfamily":0,"url_m":"https:\/\/farm8.staticflickr.com\/7913\/46400643135_242c90faba.jpg","height_m":"333","width_m":"500","url_c":"https:\/\/farm8.staticflickr.com\/7913\/46400643135_242c90faba_c.jpg","height_c":534,"width_c":"800","url_l":"https:\/\/farm8.staticflickr.com\/7913\/46400643135_242c90faba_b.jpg","height_l":"683","width_l":"1024","url_h":"https:\/\/farm8.staticflickr.com\/7913\/46400643135_4625e2941e_h.jpg","height_h":1067,"width_h":"1600","url_o":"https:\/\/farm8.staticflickr.com\/7913\/46400643135_3137b881d3_o.jpg","height_o":"2592","width_o":"3888"},{"id":"46592293574","owner":"9108763@N08","secret":"18ee3cc763","server":"7907","farm":8,"title":"*SURLY* disc trucker (52)","ispublic":1,"isfriend":0,"isfamily":0,"url_m":"https:\/\/farm8.staticflickr.com\/7907\/46592293574_18ee3cc763.jpg","height_m":"333","width_m":"500","url_c":"https:\/\/farm8.staticflickr.com\/7907\/46592293574_18ee3cc763_c.jpg","height_c":534,"width_c":"800","url_l":"https:\/\/farm8.staticflickr.com\/7907\/46592293574_18ee3cc763_b.jpg","height_l":"683","width_l":"1024","url_h":"https:\/\/farm8.staticflickr.com\/7907\/46592293574_55c3135027_h.jpg","height_h":1067,"width_h":"1600","url_o":"https:\/\/farm8.staticflickr.com\/7907\/46592293574_6cd633ee3d_o.jpg","height_o":"2592","width_o":"3888"},{"id":"46400642895","owner":"9108763@N08","secret":"40dbb397d7","server":"7922","farm":8,"title":"*SURLY* disc trucker (52)","ispublic":1,"isfriend":0,"isfamily":0,"url_m":"https:\/\/farm8.staticflickr.com\/7922\/46400642895_40dbb397d7.jpg","height_m":"333","width_m":"500","url_c":"https:\/\/farm8.staticflickr.com\/7922\/46400642895_40dbb397d7_c.jpg","height_c":534,"width_c":"800","url_l":"https:\/\/farm8.staticflickr.com\/7922\/46400642895_40dbb397d7_b.jpg","height_l":"683","width_l":"1024","url_h":"https:\/\/farm8.staticflickr.com\/7922\/46400642895_5a70b4fcc2_h.jpg","height_h":1067,"width_h":"1600","url_o":"https:\/\/farm8.staticflickr.com\/7922\/46400642895_bf3be59fb9_o.jpg","height_o":"2592","width_o":"3888"},{"id":"46592293304","owner":"9108763@N08","secret":"930b670439","server":"7833","farm":8,"title":"*SURLY* disc trucker (52)","ispublic":1,"isfriend":0,"isfamily":0,"url_m":"https:\/\/farm8.staticflickr.com\/7833\/46592293304_930b670439.jpg","height_m":"333","width_m":"500","url_c":"https:\/\/farm8.staticflickr.com\/7833\/46592293304_930b670439_c.jpg","height_c":534,"width_c":"800","url_l":"https:\/\/farm8.staticflickr.com\/7833\/46592293304_930b670439_b.jpg","height_l":"683","width_l":"1024","url_h":"https:\/\/farm8.staticflickr.com\/7833\/46592293304_66c0e82a7f_h.jpg","height_h":1067,"width_h":"1600","url_o":"https:\/\/farm8.staticflickr.com\/7833\/46592293304_0b7b373e18_o.jpg","height_o":"2592","width_o":"3888"},{"id":"46400642655","owner":"9108763@N08","secret":"2baaf1cb72","server":"7870","farm":8,"title":"*SURLY* disc trucker (52)","ispublic":1,"isfriend":0,"isfamily":0,"url_m":"https:\/\/farm8.staticflickr.com\/7870\/46400642655_2baaf1cb72.jpg","height_m":"333","width_m":"500","url_c":"https:\/\/farm8.staticflickr.com\/7870\/46400642655_2baaf1cb72_c.jpg","height_c":534,"width_c":"800","url_l":"https:\/\/farm8.staticflickr.com\/7870\/46400642655_2baaf1cb72_b.jpg","height_l":"683","width_l":"1024","url_h":"https:\/\/farm8.staticflickr.com\/7870\/46400642655_114e93631b_h.jpg","height_h":1067,"width_h":"1600","url_o":"https:\/\/farm8.staticflickr.com\/7870\/46400642655_5dd9ef4a4b_o.jpg","height_o":"2592","width_o":"3888"},{"id":"46592293114","owner":"9108763@N08","secret":"d47eea88c4","server":"7875","farm":8,"title":"*SURLY* disc trucker (52)","ispublic":1,"isfriend":0,"isfamily":0,"url_m":"https:\/\/farm8.staticflickr.com\/7875\/46592293114_d47eea88c4.jpg","height_m":"333","width_m":"500","url_c":"https:\/\/farm8.staticflickr.com\/7875\/46592293114_d47eea88c4_c.jpg","height_c":534,"width_c":"800","url_l":"https:\/\/farm8.staticflickr.com\/7875\/46592293114_d47eea88c4_b.jpg","height_l":"683","width_l":"1024","url_h":"https:\/\/farm8.staticflickr.com\/7875\/46592293114_d701341258_h.jpg","height_h":1067,"width_h":"1600","url_o":"https:\/\/farm8.staticflickr.com\/7875\/46592293114_bfeaed9116_o.jpg","height_o":"2592","width_o":"3888"},{"id":"46400642415","owner":"9108763@N08","secret":"a2c1186e3b","server":"7890","farm":8,"title":"*SURLY* disc trucker (52)","ispublic":1,"isfriend":0,"isfamily":0,"url_m":"https:\/\/farm8.staticflickr.com\/7890\/46400642415_a2c1186e3b.jpg","height_m":"333","width_m":"500","url_c":"https:\/\/farm8.staticflickr.com\/7890\/46400642415_a2c1186e3b_c.jpg","height_c":534,"width_c":"800","url_l":"https:\/\/farm8.staticflickr.com\/7890\/46400642415_a2c1186e3b_b.jpg","height_l":"683","width_l":"1024","url_h":"https:\/\/farm8.staticflickr.com\/7890\/46400642415_602445a82a_h.jpg","height_h":1067,"width_h":"1600","url_o":"https:\/\/farm8.staticflickr.com\/7890\/46400642415_6437188848_o.jpg","height_o":"2592","width_o":"3888"},{"id":"46400642305","owner":"9108763@N08","secret":"28458a0cc3","server":"7832","farm":8,"title":"*SURLY* disc trucker (52)","ispublic":1,"isfriend":0,"isfamily":0,"url_m":"https:\/\/farm8.staticflickr.com\/7832\/46400642305_28458a0cc3.jpg","height_m":"333","width_m":"500","url_c":"https:\/\/farm8.staticflickr.com\/7832\/46400642305_28458a0cc3_c.jpg","height_c":534,"width_c":"800","url_l":"https:\/\/farm8.staticflickr.com\/7832\/46400642305_28458a0cc3_b.jpg","height_l":"683","width_l":"1024","url_h":"https:\/\/farm8.staticflickr.com\/7832\/46400642305_948702abac_h.jpg","height_h":1067,"width_h":"1600","url_o":"https:\/\/farm8.staticflickr.com\/7832\/46400642305_d13922f7b9_o.jpg","height_o":"2592","width_o":"3888"},{"id":"46592292874","owner":"9108763@N08","secret":"bbfe0e486a","server":"7888","farm":8,"title":"*SURLY* disc trucker (52)","ispublic":1,"isfriend":0,"isfamily":0,"url_m":"https:\/\/farm8.staticflickr.com\/7888\/46592292874_bbfe0e486a.jpg","height_m":"333","width_m":"500","url_c":"https:\/\/farm8.staticflickr.com\/7888\/46592292874_bbfe0e486a_c.jpg","height_c":534,"width_c":"800","url_l":"https:\/\/farm8.staticflickr.com\/7888\/46592292874_bbfe0e486a_b.jpg","height_l":"683","width_l":"1024","url_h":"https:\/\/farm8.staticflickr.com\/7888\/46592292874_9a8baf7e9b_h.jpg","height_h":1067,"width_h":"1600","url_o":"https:\/\/farm8.staticflickr.com\/7888\/46592292874_ed40c2ab0a_o.jpg","height_o":"2592","width_o":"3888"},{"id":"46400642135","owner":"9108763@N08","secret":"53b904867d","server":"7915","farm":8,"title":"*SURLY* disc trucker (52)","ispublic":1,"isfriend":0,"isfamily":0,"url_m":"https:\/\/farm8.staticflickr.com\/7915\/46400642135_53b904867d.jpg","height_m":"333","width_m":"500","url_c":"https:\/\/farm8.staticflickr.com\/7915\/46400642135_53b904867d_c.jpg","height_c":534,"width_c":"800","url_l":"https:\/\/farm8.staticflickr.com\/7915\/46400642135_53b904867d_b.jpg","height_l":"683","width_l":"1024","url_h":"https:\/\/farm8.staticflickr.com\/7915\/46400642135_20bd23745a_h.jpg","height_h":1067,"width_h":"1600","url_o":"https:\/\/farm8.staticflickr.com\/7915\/46400642135_28a7b6b5df_o.jpg","height_o":"2592","width_o":"3888"},{"id":"46592292764","owner":"9108763@N08","secret":"b934bb03c5","server":"7900","farm":8,"title":"*SURLY* disc trucker (52)","ispublic":1,"isfriend":0,"isfamily":0,"url_m":"https:\/\/farm8.staticflickr.com\/7900\/46592292764_b934bb03c5.jpg","height_m":"333","width_m":"500","url_c":"https:\/\/farm8.staticflickr.com\/7900\/46592292764_b934bb03c5_c.jpg","height_c":534,"width_c":"800","url_l":"https:\/\/farm8.staticflickr.com\/7900\/46592292764_b934bb03c5_b.jpg","height_l":"683","width_l":"1024","url_h":"https:\/\/farm8.staticflickr.com\/7900\/46592292764_7338999542_h.jpg","height_h":1067,"width_h":"1600","url_o":"https:\/\/farm8.staticflickr.com\/7900\/46592292764_6988dd2680_o.jpg","height_o":"2592","width_o":"3888"},{"id":"47315750111","owner":"147160938@N02","secret":"7a88c93eaa","server":"7926","farm":8,"title":"Cost of a Deck","ispublic":1,"isfriend":0,"isfamily":0,"url_m":"https:\/\/farm8.staticflickr.com\/7926\/47315750111_7a88c93eaa.jpg","height_m":"281","width_m":"500","url_c":"https:\/\/farm8.staticflickr.com\/7926\/47315750111_7a88c93eaa_c.jpg","height_c":450,"width_c":"800","url_l":"https:\/\/farm8.staticflickr.com\/7926\/47315750111_7a88c93eaa_b.jpg","height_l":"576","width_l":"1024","url_h":"https:\/\/farm8.staticflickr.com\/7926\/47315750111_7001420fe6_h.jpg","height_h":900,"width_h":"1600","url_o":"https:\/\/farm8.staticflickr.com\/7926\/47315750111_9d3eef15b1_o.jpg","height_o":"1539","width_o":"2736"},{"id":"40350689923","owner":"89279711@N04","secret":"46d3c6d232","server":"7903","farm":8,"title":"Zona de Embarcaciones en playa de San Crist\u00f3bal, Almu\u00f1\u00e9car","ispublic":1,"isfriend":0,"isfamily":0,"url_m":"https:\/\/farm8.staticflickr.com\/7903\/40350689923_46d3c6d232.jpg","height_m":"332","width_m":"500","url_c":"https:\/\/farm8.staticflickr.com\/7903\/40350689923_46d3c6d232_c.jpg","height_c":531,"width_c":"800","url_l":"https:\/\/farm8.staticflickr.com\/7903\/40350689923_46d3c6d232_b.jpg","height_l":"680","width_l":"1024","url_h":"https:\/\/farm8.staticflickr.com\/7903\/40350689923_1f84e5aa9a_h.jpg","height_h":1063,"width_h":"1600","url_o":"https:\/\/farm8.staticflickr.com\/7903\/40350689923_76d4d9be52_o.jpg","height_o":"3857","width_o":"5808"},{"id":"40350688173","owner":"132670954@N07","secret":"41d5e1137f","server":"7888","farm":8,"title":"Photo walk with Trey Ratcliff in Moscow","ispublic":1,"isfriend":0,"isfamily":0,"url_m":"https:\/\/farm8.staticflickr.com\/7888\/40350688173_41d5e1137f.jpg","height_m":"373","width_m":"500","url_c":"https:\/\/farm8.staticflickr.com\/7888\/40350688173_41d5e1137f_c.jpg","height_c":596,"width_c":"800","url_l":"https:\/\/farm8.staticflickr.com\/7888\/40350688173_41d5e1137f_b.jpg","height_l":"763","width_l":"1024"},{"id":"46592385544","owner":"132670954@N07","secret":"b7779f6a99","server":"7850","farm":8,"title":"Destinations Magazine (New Zealand) \"Splendid Russia\" \/ \"\u0412\u0435\u043b\u0438\u043a\u043e\u043b\u0435\u043f\u043d\u0430\u044f \u0420\u043e\u0441\u0441\u0438\u044f\"","ispublic":1,"isfriend":0,"isfamily":0,"url_m":"https:\/\/farm8.staticflickr.com\/7850\/46592385544_b7779f6a99.jpg","height_m":"216","width_m":"500","url_c":"https:\/\/farm8.staticflickr.com\/7850\/46592385544_b7779f6a99_c.jpg","height_c":346,"width_c":"800","url_l":"https:\/\/farm8.staticflickr.com\/7850\/46592385544_b7779f6a99_b.jpg","height_l":"443","width_l":"1024","url_h":"https:\/\/farm8.staticflickr.com\/7850\/46592385544_abef66ae64_h.jpg","height_h":693,"width_h":"1600"},{"id":"40350687553","owner":"132670954@N07","secret":"d5e1908958","server":"7804","farm":8,"title":"\u0416\u0443\u0440\u043d\u0430\u043b \"\u0412\u043e\u044f\u0436\" \u2116201","ispublic":1,"isfriend":0,"isfamily":0,"url_m":"https:\/\/farm8.staticflickr.com\/7804\/40350687553_d5e1908958.jpg","height_m":"318","width_m":"500","url_c":"https:\/\/farm8.staticflickr.com\/7804\/40350687553_d5e1908958_c.jpg","height_c":509,"width_c":"800","url_l":"https:\/\/farm8.staticflickr.com\/7804\/40350687553_d5e1908958_b.jpg","height_l":"652","width_l":"1024"},{"id":"47263279142","owner":"125765802@N06","secret":"5701666531","server":"7901","farm":8,"title":"Just blue and white","ispublic":1,"isfriend":0,"isfamily":0,"url_m":"https:\/\/farm8.staticflickr.com\/7901\/47263279142_5701666531.jpg","height_m":"412","width_m":"500","url_c":"https:\/\/farm8.staticflickr.com\/7901\/47263279142_5701666531_c.jpg","height_c":659,"width_c":"800","url_l":"https:\/\/farm8.staticflickr.com\/7901\/47263279142_5701666531_b.jpg","height_l":"844","width_l":"1024","url_h":"https:\/\/farm8.staticflickr.com\/7901\/47263279142_931539bdb2_h.jpg","height_h":1319,"width_h":"1600","url_o":"https:\/\/farm8.staticflickr.com\/7901\/47263279142_c1758fbba9_o.jpg","height_o":"2048","width_o":"2485"},{"id":"32373749297","owner":"164503321@N05","secret":"591e6f2c69","server":"7829","farm":8,"title":"CG8A1697","ispublic":1,"isfriend":0,"isfamily":0,"url_m":"https:\/\/farm8.staticflickr.com\/7829\/32373749297_591e6f2c69.jpg","height_m":"333","width_m":"500","url_c":"https:\/\/farm8.staticflickr.com\/7829\/32373749297_591e6f2c69_c.jpg","height_c":534,"width_c":"800","url_l":"https:\/\/farm8.staticflickr.com\/7829\/32373749297_591e6f2c69_b.jpg","height_l":"683","width_l":"1024","url_h":"https:\/\/farm8.staticflickr.com\/7829\/32373749297_770d8be8c1_h.jpg","height_h":1067,"width_h":"1600"},{"id":"47315677681","owner":"164503321@N05","secret":"4d8882f680","server":"7884","farm":8,"title":"CG8A1701","ispublic":1,"isfriend":0,"isfamily":0,"url_m":"https:\/\/farm8.staticflickr.com\/7884\/47315677681_4d8882f680.jpg","height_m":"357","width_m":"500","url_c":"https:\/\/farm8.staticflickr.com\/7884\/47315677681_4d8882f680_c.jpg","height_c":571,"width_c":"800","url_l":"https:\/\/farm8.staticflickr.com\/7884\/47315677681_4d8882f680_b.jpg","height_l":"731","width_l":"1024","url_h":"https:\/\/farm8.staticflickr.com\/7884\/47315677681_1ce7fba3d8_h.jpg","height_h":1143,"width_h":"1600"},{"id":"32373748287","owner":"164503321@N05","secret":"f208febd26","server":"7837","farm":8,"title":"CG8A1701BW","ispublic":1,"isfriend":0,"isfamily":0,"url_m":"https:\/\/farm8.staticflickr.com\/7837\/32373748287_f208febd26.jpg","height_m":"357","width_m":"500","url_c":"https:\/\/farm8.staticflickr.com\/7837\/32373748287_f208febd26_c.jpg","height_c":571,"width_c":"800","url_l":"https:\/\/farm8.staticflickr.com\/7837\/32373748287_f208febd26_b.jpg","height_l":"731","width_l":"1024","url_h":"https:\/\/farm8.staticflickr.com\/7837\/32373748287_961d5f6583_h.jpg","height_h":1143,"width_h":"1600"},{"id":"47315676531","owner":"164503321@N05","secret":"b90f929f8f","server":"7902","farm":8,"title":"CG8A1736","ispublic":1,"isfriend":0,"isfamily":0,"url_m":"https:\/\/farm8.staticflickr.com\/7902\/47315676531_b90f929f8f.jpg","height_m":"500","width_m":"357","url_c":"https:\/\/farm8.staticflickr.com\/7902\/47315676531_b90f929f8f_c.jpg","height_c":"800","width_c":571,"url_l":"https:\/\/farm8.staticflickr.com\/7902\/47315676531_b90f929f8f_b.jpg","height_l":"1024","width_l":"731","url_h":"https:\/\/farm8.staticflickr.com\/7902\/47315676531_54454efbdc_h.jpg","height_h":"1600","width_h":1143}]},"stat":"ok"}